#Cannor + Akan
A00 = {	#Testorian Empire. DO NOT DELETE. Used to invalidate some checks
	color = { 69  69  69 }
	
	country_type = recognized
	
	tier = empire
	
	cultures = { testorian }
	capital = STATE_DAMESEAR
}

A01 = {	#Anbennar
	color = { 211  220  240 }
	
	country_type = recognized
	
	tier = empire
	
	cultures = { east_damerian }
	capital = STATE_DAMESEAR
}

A02 = {	#Vivin Empire
	color = { 0 18 145 }
	
	country_type = recognized
	
	tier = empire
	
	cultures = { arannese corvurian }
	capital = STATE_ARANNEN
}

A03 = {	#Lorent
	color = { 90  0  0 }
	
	country_type = recognized
	
	tier = empire
	
	cultures = { lorentish }
	capital = STATE_ROSECROWN
}

A04 = {	#Northern League
	color = { 48  51  108 }
	
	country_type = recognized
	
	tier = empire
	
	cultures = { gawedi }
	capital = STATE_GAWED
}

A05 = {	#Bisan
	color = { 42  150  23 }
	
	country_type = recognized
	
	tier = principality
	
	cultures = { wexonard }
	capital = STATE_BISAN
}

A06 = {	#Gnomish Hierarchy
	color = { 255  105  180 }
	
	country_type = recognized
	
	tier = empire
	
	cultures = { cliff_gnome creek_gnome }
	capital = STATE_ODDANROY
}

Z69 = {	#Gobbos
	color = { 255  105  180 }
	
	country_type = recognized
	
	tier = empire
	
	cultures = { cave_goblin }
	capital = STATE_MARRHOLD
}


A07 = {	#Reveria
	color = { 135  129  189 }
	
	country_type = recognized
	
	tier = kingdom
	
	cultures = { reverian }
	capital = STATE_REVERIA
}

A08 = {	#Eborthil
	color = { 207  182  100 }
	
	country_type = recognized
	
	tier = kingdom
	
	cultures = { tefori }
	capital = STATE_EBORTHIL
}

A09 = {	#Busilar
	color = { 211  85  4 }
	
	country_type = recognized
	
	tier = kingdom
	
	cultures = { busilari }
	capital = STATE_HAPAINE
}

A10 = {	#Grombar
	color = { 101  125  134 }
	
	country_type = recognized
	
	tier = empire
	
	cultures = { grombari_half_orc grombari_orc }
	capital = STATE_ESALD
}

A11 = {	#Deshak
	color = { 68  146  194 }
	
	country_type = recognized
	
	tier = empire
	
	cultures = { desha }
	capital = STATE_DESHAK
}

A12 = {	#Khasa
	color = { 90 135 65 }
	
	country_type = recognized
	
	tier = principality
	
	cultures = { khasani }
	capital = STATE_KHASA
}

A13 = {	#Ekha
	color = { 206  222  199 }
	
	country_type = recognized
	
	tier = 	principality
	
	cultures = { far_akani }
	capital = STATE_EKHA
}


A14 = {	#Small Country
	color = { 197  138  99 }
	
	country_type = recognized
	
	tier = 	kingdom
	
	cultures = { redfoot_halfling bluefoot_halfling }
	capital = STATE_HOMEHILLS
}

A15 = {	#Portnamm
	color = { 207  255  123 }
	
	country_type = recognized
	
	tier = 	principality
	
	cultures = { creek_gnome }
	capital = STATE_IOCHAND
}

A16 = {	#Kobildzan
	color = { 204  181  189 } 
	
	country_type = recognized
	
	tier = 	kingdom
	
	cultures = { kobildzani_kobold }
	capital = STATE_KOBILDZAN
}

A17 = {	#Brecc
	color = { 193  71  239 }
	
	country_type = recognized
	
	tier = 	principality
	
	cultures = { cliff_gnome kobildzani_kobold }
	capital = STATE_BRECC
}

A18 = {	#Bayvek
	color = { 84  111  192 }
	
	country_type = recognized
	
	tier = 	principality
	
	cultures = { city_goblin }
	capital = STATE_BAYVEK
}

A19 = {	#Vertesk
	color = { 57  81  87 }
	
	country_type = recognized
	
	tier = 	principality
	
	cultures = { vertesker }
	capital = STATE_VERTESK
}

A20 = {	#Ibevar
	color = { 134  217  255 }
	
	country_type = recognized
	
	tier = 	kingdom
	
	cultures = { moon_elven }
	capital = STATE_NORTH_IBEVAR
}

A21 = {	#Farranean
	color = { 160 185 85 }
	
	country_type = recognized
	
	tier = 	kingdom
	
	cultures = { farrani }
	capital = STATE_FARRANEAN
}

A22 = {	#Ancardia
	color = { 226  186  165 }
	
	country_type = recognized
	
	tier = 	kingdom
	
	cultures = { ancardian }
	capital = STATE_ANCARDIAN_PLAINS
}

A23 = {	#Elikhand
	color = { 232  118  121 }
	
	country_type = recognized
	
	tier = 	principality
	
	cultures = { elikhander }
	capital = STATE_ROHIBON
}

A24 = {	#Newshire
	color = { 181  106  106 }
	
	country_type = recognized
	
	tier = 	principality
	
	cultures = { newfoot_halfling }
	capital = STATE_NEWSHIRE
}

A25 = {	#Araionn
	color = { 226  200  107 }
	
	country_type = recognized
	
	tier = 	principality
	
	cultures = { ionnic }
	capital = STATE_OUDMERE
}

A26 = {	#Wyvernheart
	color = { 246  54  3 }
	
	country_type = recognized
	
	tier = 	kingdom
	
	cultures = { heartman }
	capital = STATE_EBONMARCK
}

A27 = {	#Blademarches
	color = { 230  216  166 }
	
	country_type = recognized
	
	tier = 	kingdom
	
	cultures = { marcher }
	capital = STATE_BLADEMARCH
}

A28 = {	#Rosande
	color = { 131  52  54 }
	
	country_type = recognized
	
	tier = 	kingdom
	
	cultures = { rosanda }
	capital = STATE_ROSANVORD
}

A29 = {	#Marrhold
	color = { 157  121  115 }
	
	country_type = recognized
	
	tier = 	kingdom
	
	cultures = { marrodic }
	capital = STATE_MARRHOLD
}

A30 = {	#Magocratic Demesne / Nurcestir?
	color = { 209  160  107 }
	
	country_type = recognized
	
	tier = 	kingdom
	
	cultures = { nurcestiran }
	capital = STATE_CASTONATH
}

A31 = {	#Unguldavor
	color = { 20  160  60 }
	
	country_type = unrecognized
	
	tier = 	kingdom
	
	cultures = { ungulan_orc }
	capital = STATE_UNGULDAVOR
}

A32 = {	#Silvermere - maybe?
	color = { 189  234  234 }
	
	country_type = recognized
	
	tier = 	principality
	
	cultures = { nurcestiran }
	capital = STATE_BURNOLL
}

A33 = {	#Ravelian Rectorate
	color = { 55  55  77 }
	
	country_type = recognized
	
	tier = 	principality
	
	cultures = { east_damerian arannese }
	capital = STATE_PASHAINE
}

A34 = {	#Telgeir
	color = { 117  134  143 }
	
	country_type = recognized
	
	tier = 	principality
	
	cultures = { esmari }
	capital = STATE_TELGEIR_CALASCANDAR
}


A35 = {	#Konwell
	color = { 167  70  0 }
	
	country_type = recognized
	
	tier = principality
	
	cultures = { esmari }
	capital = STATE_KONWELL
}

A36 = {	#Estallen
	color = { 185  132  164 }
	
	country_type = recognized
	
	tier = principality
	
	cultures = { esmari }
	capital = STATE_ESTALLEN
}

A37 = { # Silverforge
	color = { 177  177  177 }
	
	country_type = recognized
	
	tier = principality
	
	cultures = { silver_dwarf }
	capital = STATE_SILVERFORGE
}

A38 = { # Bennon
	color = { 91  122  169 }
	
	country_type = recognized
	
	tier = principality
	
	cultures = { esmari }
	capital = STATE_BENNON
}

A39 = { # Leslinpar
	color = { 248  240  143 }
	
	country_type = recognized
	
	tier = principality
	
	cultures = { esmari }
	capital = STATE_HIGH_ESMAR
}

A40 = { # Esmaraine
	color = { 203  133  72 }
	
	country_type = recognized
	
	tier = principality
	
	cultures = { esmari }
	capital = STATE_CANN_ESMAR
}

A41 = { # Wex
	color = { 97  0  137 }
	
	country_type = recognized
	
	tier = principality
	
	cultures = { wexonard }
	capital = STATE_WEX
}

A42 = { # Galeinn
	color = { 248  248  248 }
	
	country_type = recognized
	
	tier = principality
	
	cultures = { east_damerian }
	capital = STATE_PASHAINE
}

A43 = { # Bluehart
	color = { 53  81  224 }
	
	country_type = recognized
	
	tier = principality
	
	cultures = { east_damerian }
	capital = STATE_PASHAINE
}

A44 = { # Moonhaven
	color = { 196  243  246 }
	
	country_type = recognized
	
	tier = principality
	
	cultures = { moon_elven }
	capital = STATE_MOONHAVEN
}

A45 = { # Pearlsedge
	color = { 255  249  232 }
	
	country_type = recognized
	
	tier = principality
	
	cultures = { pearlsedger }
	capital = STATE_PEARLSEDGE
}

A46 = { # Neckcliffe
	color = { 119  119  119 }
	
	country_type = recognized
	
	tier = principality
	
	cultures = { west_damerian }
	capital = STATE_NECKCLIFFE
}

A47 = { # Menibor
	color = { 230  229  49 }
	
	country_type = recognized
	
	tier = principality
	
	cultures = { vernman }
	capital = STATE_NECKCLIFFE
}

A48 = { # Verne
	color = { 150  0  0 }
	
	country_type = recognized
	
	tier = principality
	
	cultures = { vernman }
	capital = STATE_NECKCLIFFE
}

A49 = { # Carneter
	color = { 0  233  117 } # Colour for this from CK3
	
	country_type = recognized
	
	tier = principality
	
	cultures = { west_damerian pearlsedger roilsardi }
	capital = STATE_CARNETER
}

A50 = { # Wesdam
	color = { 37  138  164 }
	
	country_type = recognized
	
	tier = principality
	
	cultures = { west_damerian }
	capital = STATE_WESDAM
}

A51 = { # Istralore
	color = { 148  201  199 }
	
	country_type = recognized
	
	tier = principality
	
	cultures = { east_damerian }
	capital = STATE_ISTRALORIAN_DALES
}

A52 = { # Aranmas
	color = { 126  131  206 }
	
	country_type = recognized
	
	tier = principality
	
	cultures = { arbarani }
	capital = STATE_ARBARAN
}

A53 = { # Bellacaire
	color = { 195  108  165 }
	
	country_type = recognized
	
	tier = principality
	
	cultures = { east_damerian }
	capital = STATE_PASHAINE
}

A54 = { # Cestirande
	color = { 38  34  98 }
	
	country_type = recognized
	
	tier = principality
	
	cultures = { east_damerian }
	capital = STATE_PASHAINE
}

A55 = { # Pashaine
	color = { 130  55  140 }
	
	country_type = recognized
	
	tier = principality
	
	cultures = { east_damerian }
	capital = STATE_PASHAINE
}

A56 = { # Silvelar
	color = { 199  199  199 }
	
	country_type = recognized
	
	tier = principality
	
	cultures = { east_damerian }
	capital = STATE_DAMERIAN_HEARTLANDS
}

A57 = { # Dameria
	color = { 0  165  187 }
	
	country_type = recognized
	
	tier = kingdom
	
	cultures = { east_damerian west_damerian }
	capital = STATE_DAMERIAN_HEARTLANDS
}

A58 = { # Gawed
	color = { 48 51 108 }
	
	country_type = recognized
	
	tier = empire
	
	cultures = { gawedi }
	capital = STATE_GAWED
}

A59 = { # Westmoors
	color = { 71 84 102 }
	
	country_type = recognized
	
	tier = principality
	
	cultures = { moorman }
	capital = STATE_WESTMOORS_PROPER
}

A60 = { # Alencay
	color = { 80 107 232 }
	
	country_type = recognized
	
	tier = principality
	
	cultures = { blue_reachman }
	capital = STATE_SERPENTSHEAD
}

A61 = { # Adshaw
	color = { 92 70 37 }
	
	country_type = recognized
	
	tier = principality
	
	cultures = { gawedi }
	capital = STATE_ADSHAW
}

A62 = { # Bjarnrik
	color = { 185 122 87 }
	
	country_type = recognized
	
	tier = kingdom
	
	cultures = { dalr }
	capital = STATE_BJARNLAND
}

A63 = { # Obrtrol
	color = { 153  217  234 }
	
	country_type = recognized
	
	tier = principality
	
	cultures = { dalr } # Change this to the trolls
	capital = STATE_FJORDSBAY
}

A64 = { # Olavlund
	color = { 110  66  80 }
	
	country_type = recognized
	
	tier = kingdom
	
	cultures = { olavish }
	capital = STATE_EAST_OLAVLUND
}

A65 = { # Redglades
	color = { 191  55  55 }
	
	country_type = recognized
	
	tier = kingdom
	
	cultures = { moon_elven }
	capital = STATE_REDGLADES
}

A66 = { # Corvuria
	color = { 119 120 120 }
	
	country_type = recognized
	
	tier = kingdom
	
	cultures = { corvurian }
	capital = STATE_THE_LAND
}

A67 = { # Arannen
	color = { 255 255 255 }
	
	country_type = recognized
	
	tier = kingdom
	
	cultures = { arannese }
	capital = STATE_ARANNEN
}

A68 = { # Arbaran
	color = { 135  166  165 }
	
	country_type = recognized
	
	tier = kingdom
	
	cultures = { arbarani }
	capital = STATE_FREECESTIR
}

A69 = { # Esmaria
	color = { 241  174  118 }
	
	country_type = recognized
	
	tier = kingdom
	
	cultures = { esmari }
	capital = STATE_CANN_ESMAR
}

A70 = { # Nathalaire
	color = { 66 66 66 }
	
	country_type = recognized
	
	tier = principality
	
	cultures = { esmari } # change to nathalairey
	capital = STATE_CORVELD
}

A71 = { # Honderaak
	color = { 185  122  87 } # hill gnolls
	
	country_type = recognized
	
	tier = principality
	
	cultures = { dovesworn_gnoll }
	capital = STATE_SUGAMBER
}

A72 = { # Celmaldor
	color = { 133 133 160 }
	
	country_type = recognized
	
	tier = kingdom
	
	cultures = { moon_elven }
	capital = STATE_SERPENTSHEAD
}

A73 = { # Sorncost
	color = { 135 3 86 }
	
	country_type = recognized
	
	tier = kingdom
	
	cultures = { sorncosti }
	capital = STATE_SORNCOST
}

A74 = { # Roilsard
	color = { 238  13  121 }
	
	country_type = recognized
	
	tier = kingdom
	
	cultures = { roilsardi }
	capital = STATE_ROILSARD
}

A75 = { # Rubyhold
	color = { 239  52  52 }
	
	country_type = recognized
	
	tier = kingdom
	
	cultures = { ruby_dwarf }
	capital = STATE_RUBYHOLD
}

A76 = { # Folly Gnolls
	color = { 64  36  0 }
	
	country_type = decentralized
	
	tier = kingdom
	
	cultures = { flamemarked_gnoll }
	capital = STATE_DREADMIRE
}


A78 = { # Deranne
	color = { 64  36  0 }
	
	country_type = decentralized
	
	tier = kingdom
	
	cultures = { derannic }
	capital = STATE_DERANNE
}

A79 = { # Cyranvar
	color = { 10 95 13 }
	
	country_type = recognized
	
	tier = kingdom
	
	cultures = { wood_elven }
	capital = STATE_LAKE_GROVE
}

A80 = { # Soyzkaru Cartel
	color = { 245  18  3 }
	
	country_type = recognized
	
	tier = kingdom
	
	cultures = { soyzkaru_goblin }
	capital = STATE_OURDIA
}


A81 = { # Ourdia
	color = { 90  120  60 }
	
	country_type = recognized
	
	tier = kingdom
	
	cultures = { ourdi }
	capital = STATE_OURDIA
}




#North Aelantir + Ruined Sea
B01 = {	#Asraport
	color = { 243 120 28 }
	
	country_type = colonial
	
	tier = principality
	
	cultures = { silver_dwarf }
	capital = STATE_WANDERERS_GATE
}

B02 = {	#Mykx
	color = { 74 58 130 }
	
	country_type = colonial
	
	tier = principality
	
	cultures = { ruinscourge_gnoll }
	capital = STATE_CORE_ISLANDS
}

B03 = {	#CLSTC - Calasanni Trading Company
	color = { 6 45 11 }
	
	country_type = colonial
	
	tier = principality
	
	cultures = { arbarani crownsman }	#used to have pearlsedger but fuck em
	capital = STATE_ISLES_OF_PLENTY
}

B04 = {	#DTC - Deranne Trading Company
	color = { 130 27 186 }
	
	country_type = colonial
	
	tier = principality
	
	cultures = { derannic }
	capital = STATE_SILSENSALD_ISLES
}

B05 = {	#VG - Vanbury Guild
	color = { 117 134 143 }
	
	country_type = colonial
	
	tier = kingdom
	
	cultures = { vanburian }
	capital = STATE_STEEL_BAY
}

B06 = {	#Saamirses
	color = { 213 98 109 }
	
	country_type = colonial
	
	tier = principality
	
	cultures = { saamiri }
	capital = STATE_SAAMIRSES
}

B07 = {	#Harafe Triarchy
	color = { 121 150 137 }
	
	country_type = colonial
	
	tier = kingdom
	
	cultures = { tinker_gnome soot_goblin steelscale_kobold }
	capital = STATE_GOMMIOCHAND
}

B08 = {	#New Lorincrag
	color = { 14 73 122 }
	
	country_type = colonial
	
	tier = principality
	
	cultures = { busilari }
	capital = STATE_GUARDIAN_ISLANDS
}

B09 = {	#Minaria
	color = { 153 0 33 }
	
	country_type = colonial
	
	tier = principality
	
	cultures = { lorentish }
	capital = STATE_BENTER
}

B10 = {	#Haraf
	color = { 229 187 211 }
	
	country_type = unrecognized
	
	tier = kingdom
	
	cultures = { harafe }
	capital = STATE_NEANKINAH
}

B11 = {	#Raanwair - Sunplains
	color = { 83 67 29 }
	
	country_type = decentralized
	
	tier = principality
	
	cultures = { epednar }
	capital = STATE_TAMETER
}

B12 = {	#Pirendral
	color = { 247 87 44 }
	
	country_type = colonial
	
	tier = principality
	
	cultures = { pearlsedger }
	capital = STATE_PIRENDRAL
}

B13 = {	#Varionail
	color = { 157 224 255 }
	
	country_type = colonial
	
	tier = principality
	
	cultures = { moon_elven }
	capital = STATE_VARIONAIL
}

B14 = {	#Endralliande
	color = { 76  95  178 }
	
	country_type = colonial
	
	tier = principality
	
	cultures = { endralliander }
	capital = STATE_CAPE_OF_ENDRAL
}

B15 = {	#Torrisheah
	color = { 42  150  23 }
	
	country_type = colonial
	
	tier = principality
	
	cultures = { lorentish }
	capital = STATE_TORRISHEAH
}

B16 = {	#New Erngrove
	color = { 255 249 232 }
	
	country_type = colonial
	
	tier = principality
	
	cultures = { pearlsedger }
	capital = STATE_OBAITHAIL
}

B17 = {	#Aelnar
	color = { 28 31 150 }
	
	country_type = colonial
	
	tier = empire
	
	cultures = { star_elf }
	capital = STATE_SOUTH_DALAIRE
}

B18 = {	#New Redglades
	color = { 191 55 55 }
	
	country_type = colonial
	
	tier = kingdom
	
	cultures = { lorentish moon_elven }
	capital = STATE_KWINEHCOST
}

B19 = {	#Cestirmark
	color = { 38  34  128 }
	
	country_type = colonial
	
	tier = principality
	
	cultures = { cestirmarker }
	capital = STATE_CESTIRMARK
}

B20 = {	#Marlliande
	color = { 31  49  238 }
	
	country_type = colonial
	
	tier = principality
	
	cultures = { marlliander }
	capital = STATE_MARLLIANDE
}

B21 = {	#Ynnsmouth / Yanek
	color = { 6  33  76 }
	
	country_type = colonial
	
	tier = principality
	
	cultures = { boek }
	capital = STATE_YNNSMOUTH
}

B22 = {	#Zanlib
	color = { 167  98  117 }
	
	country_type = colonial
	
	tier = principality
	
	cultures = { zanlibi }
	capital = STATE_ZANLIB
}

B23 = {	#Isobelin
	color = { 98  52  54 }
	
	country_type = colonial
	
	tier = principality
	
	cultures = { isobeliner }
	capital = STATE_ISOBELIN
}

B24 = {	#Thilvis
	color = { 178  178  178 }
	
	country_type = colonial
	
	tier = principality
	
	cultures = { towerfoot_halfling }
	capital = STATE_THILVIS
}

B25 = {	#Valorpoint
	color = { 246 54 77 }
	
	country_type = colonial
	
	tier = principality
	
	cultures = { valorborn }
	capital = STATE_VALORPOINT
}

B26 = {	#Nur Ionnidar
	color = { 154  172  72 }
	
	country_type = colonial
	
	tier = principality
	
	cultures = { lorentish cheshoshi }
	capital = STATE_OKHIBOLI
}

B27 = {	#Neratica
	color = { 33 33 33 }
	
	country_type = colonial
	
	tier = kingdom
	
	cultures = { neratican }
	capital = STATE_CHESHOSH
}

B28 = {	#Dokanto
	color = { 82  65  145 }
	
	country_type = decentralized
	
	tier = principality
	
	cultures = { cheshoshi }
	capital = STATE_DISHENTI
}

B29 = {	#Sarda Empire
	color = { 0 209 255 }
	
	country_type = unrecognized
	
	tier = empire
	
	cultures = { sarda }
	capital = STATE_ARVERYNN
}

B30 = {	#Ynngard
	color = { 194 129 142 }
	
	country_type = colonial
	
	tier = principality
	
	cultures = { ynngarder_half_orc }
	capital = STATE_EPADYNN
}

B31 = {	#Veykoda
	color = { 67 92 183 }
	
	country_type = unrecognized
	
	tier = kingdom
	
	cultures = { veykodan }
	capital = STATE_VIZANIRZAG
}

B32 = {	#Vestipynn
	color = { 73 147 29 }
	
	country_type = colonial
	
	tier = principality
	
	cultures = { pipefoot_halfling }
	capital = STATE_ARNULYKAIR
}

B33 = {	#Corynnpoel
	color = { 220 178 155 }
	
	country_type = colonial
	
	tier = principality
	
	cultures = { corinsfielder }
	capital = STATE_CORYNN
}

B34 = {	#Beggaston
	color = { 225 205 107 }
	
	country_type = colonial
	
	tier = principality
	
	cultures = { beggastonic }
	capital = STATE_MOKUNACH
}

B35 = {	#New Havoral
	color = { 64 111 169 }
	
	country_type = colonial
	
	tier = principality
	
	cultures = { new_havoric }
	capital = STATE_OSINDAIN
}

B36 = {	#Balgabar
	color = { 177 177 200 }
	
	country_type = colonial
	
	tier = principality
	
	cultures = { steel_dwarf }
	capital = STATE_IMSTYNN
}

B37 = {	#Pelodaire
	color = { 129 217 235 }
	
	country_type = colonial
	
	tier = principality
	
	cultures = { moon_elven }
	capital = STATE_PAIHUBI
}

B38 = {	#Amacimst
	color = { 220 18 245 }
	
	country_type = unrecognized
	
	tier = principality
	
	cultures = { dolindhan }
	capital = STATE_VITREYNN
}

B39 = {	#Bosancovac
	color = { 48 62 124 }
	
	country_type = unrecognized
	
	tier = principality
	
	cultures = { dolindhan }
	capital = STATE_ROGAVYNN
}

B40 = {	#Epednar tribes (split up later)
	color = { 96 57 19 }
	
	country_type = decentralized
	
	tier = principality
	
	cultures = { epednar }
	capital = STATE_PAIHUBI
}

B41 = {	#Plumstead
	color = { 150 100 200 }
	
	country_type = colonial
	
	tier = principality
	
	cultures = { plumsteader }
	capital = STATE_CIODSIBH
}

B42 = {	#Tiru Moine
	color = { 230 209 49 }
	
	country_type = colonial
	
	tier = principality
	
	cultures = { tiru_moiner }
	capital = STATE_BORULEED
}

B43 = {	#Ekyunimoy tribes (split up later)
	color = { 107 90 61 }
	
	country_type = decentralized
	
	tier = principality
	
	cultures = { chiunife }
	capital = STATE_EKYU_3
}

B44 = {	#Tellumtir
	color = { 138 36 118 }
	
	country_type = colonial
	
	tier = principality
	
	cultures = { tellumtiri }
	capital = STATE_KEHTAUK
}

B45 = {	#Vels Fadhecai
	color = { 181 90 237 }
	
	country_type = unrecognized
	
	tier = principality
	
	cultures = { sarda }
	capital = STATE_VELS_FADHECAI
}

B46 = {	#Minata
	color = { 44 130 117 }
	
	country_type = unrecognized
	
	tier = principality
	
	cultures = { sarda }
	capital = STATE_KAZTAKRI
}

B47 = {	#Arganjuzorn
	color = { 99 147 104 }
	
	country_type = unrecognized
	
	tier = principality
	
	cultures = { dolindhan }
	capital = STATE_ARGANJUZORN
}

B48 = {	#Ebenmas
	color = { 170 143 131 }
	
	country_type = colonial
	
	tier = principality
	
	cultures = { ebenmasser }
	capital = STATE_TUKHNOSA
}

B49 = {	#Dragon Dominion
	color = { 0 88 0 }
	
	country_type = unrecognized
	
	tier = empire
	
	cultures = { rzentur }
	capital = STATE_SVEMEL
}

B50 = {	#Old Rzentur
	color = { 74 4 0 }
	
	country_type = decentralized
	
	tier = principality
	
	cultures = { old_rzentur }
	capital = STATE_DROZMALREVO
}

B51 = {	#Arrzreth
	color = { 0 0 0 }
	
	country_type = decentralized
	
	tier = principality
	
	cultures = { cursed_one }
	capital = STATE_ZEMSHOGEN
}

B52 = {	#Drevkenuc
	color = { 144 77 19 }
	
	country_type = unrecognized
	
	tier = principality
	
	cultures = { dolindhan }
	capital = STATE_DREVKENUC
}

B53 = {	#Freemarches
	color = { 66 245 160 }
	
	country_type = colonial
	
	tier = principality
	
	cultures = { freemarcher_half_orc }
	capital = STATE_VARBUKLAND
}

B54 = {	#Kewdhemr
	color = { 64 64 64 }
	
	country_type = decentralized
	
	tier = principality
	
	cultures = { cursed_one }
	capital = STATE_KEWDHEMR
}

B55 = {	#Cursed Ones (Dewkeanebl)
	color = { 128 128 128 }
	
	country_type = decentralized
	
	tier = principality
	
	cultures = { cursed_one }
	capital = STATE_KEWDHEMR
}

B56 = {	#Cursed Ones (Whetjul)
	color = { 48 48 48 }
	
	country_type = decentralized
	
	tier = principality
	
	cultures = { cursed_one }
	capital = STATE_WHETJUL
}

B57 = {	#Cursed Ones (Nefrnmehn)
	color = { 96 96 96 }
	
	country_type = decentralized
	
	tier = principality
	
	cultures = { cursed_one }
	capital = STATE_NEFRNMEHN
}

B58 = {	#Cursed Ones (Hehadedpar)
	color = { 63 73 127 }
	
	country_type = decentralized
	
	tier = principality
	
	cultures = { cursed_one }
	capital = STATE_NEFRNMEHN
}

B59 = {	#Themaria
	color = { 182 210 232 }
	
	country_type = colonial
	
	tier = principality
	
	cultures = { themarian }
	capital = STATE_TRITHEMAR
}

B60 = {	#Nortiochand
	color = { 87 151 238 }
	
	country_type = colonial
	
	tier = principality
	
	cultures = { glacier_gnome }
	capital = STATE_MITTANWEK
}

B61 = {	#Noo Oddansbay
	color = { 73 96 154 }
	
	country_type = colonial
	
	tier = principality
	
	cultures = { cliff_gnome }
	capital = STATE_HJORDAL
}

B62 = {	#Noo Coddorran
	color = { 170 170 200 }
	
	country_type = colonial
	
	tier = principality
	
	cultures = { cliff_gnome }
	capital = STATE_SILDARBAD
}

B63 = {	#Cursed Ones (Akewredar)
	color = { 33 0 127 }
	
	country_type = decentralized
	
	tier = principality
	
	cultures = { cursed_one }
	capital = STATE_HEHADEDPAR
}

B64 = {	#Dalairey Wastes
	color = { 198 233 255 }
	
	country_type = decentralized
	
	tier = principality
	
	cultures = { ice_sleeper }
	capital = STATE_DALAIREY_WASTES
}

B65 = {	#Arberith Wastes
	color = { 255 255 254 }
	
	country_type = decentralized
	
	tier = principality
	
	cultures = { ice_sleeper }
	capital = STATE_EAST_ARBERITH_WASTES
}

B66 = {	#Naytlahoc - Snake State
	color = { 58 39 128 }
	
	country_type = decentralized
	
	tier = principality
	
	cultures = { mayte }
	capital = STATE_TLACHIBAR
}

B67 = {	#Atlualmeya - Flowing Water
	color = { 65 19 74 }
	
	country_type = decentralized
	
	tier = principality
	
	cultures = { mayte }
	capital = STATE_WILIKINAH
}

B68 = { # Cataboek
	color = { 100  100  255 }

	country_type = unrecognized
	
	tier = empire
	
	cultures = { boek }
	capital = STATE_BOEK
}

B69 = {	#Wotzras - Center Mountain / Kooras Mountain
	color = { 24 24 141 }
	
	country_type = decentralized
	
	tier = principality
	
	cultures = { kooras }
	capital = STATE_MIKIDAP
}

B70 = {	#Loachimtzac - Sound Warrior
	color = { 48 49 90 }
	
	country_type = decentralized
	
	tier = principality
	
	cultures = { mayte }
	capital = STATE_TLACHIBAR
}

B71 = {	#Caylen's Reach 
	color = { 67 198 190 }
	
	country_type = colonial
	
	tier = principality
	
	cultures = { pearlsedger }
	capital = STATE_MANGROVY_COAST
}

B72 = {	#Falase - Great People
	color = { 202 132 159 }
	
	country_type = decentralized
	
	tier = principality
	
	cultures = { harafe }
	capital = STATE_NAUFKINAH
}

B73 = {	#Mtlachilartin - Watchers
	color = { 30 76 66 }
	
	country_type = decentralized
	
	tier = principality
	
	cultures = { mayte }
	capital = STATE_MANGROVY_COAST
}

B74 = {	#Fyhtsane - Middle Land People
	color = { 165 111 63 }
	
	country_type = decentralized
	
	tier = principality
	
	cultures = { harafe }
	capital = STATE_TSANKINAH
}

B75 = {	#Tsirwasidie - Forest Guardian People
	color = { 40 98 40 }
	
	country_type = decentralized
	
	tier = principality
	
	cultures = { harafe }
	capital = STATE_KABAHNKINAH
}

B76 = {	#Vjmland
	color = { 59 58 35 }
	
	country_type = colonial
	
	tier = principality
	
	cultures = { vernman beefoot_halfling }
	capital = STATE_KABAHNKINAH
}

B77 = {	#Keskeriyapi - Jewel Rulers
	color = { 197 38 0 }
	
	country_type = decentralized
	
	tier = principality
	
	cultures = { kooras }
	capital = STATE_TALDOUD_KAYSA
}

B78 = {	#Uk'channen - Drinking Community
	color = { 255 172 52 }
	
	country_type = decentralized
	
	tier = principality
	
	cultures = { kooras }
	capital = STATE_DRABS_CAMBANN
}

B79 = {	#Desert of the Harafe
	color = { 255 178 127 }
	
	country_type = decentralized
	
	tier = principality
	
	cultures = { harafe }
	capital = STATE_DESERT_OF_THE_HARAFE
}

B80 = {	#Eordand Administration
	color = { 183 93 213 }
	
	country_type = colonial
	
	tier = kingdom
	
	cultures = { cliff_gnome }
	capital = STATE_JHORGASHIRR
}

B81 = {	#Eighard
	color = { 81 111 128 }
	
	country_type = unrecognized
	
	tier = principality
	
	cultures = { tuathak }
	capital = STATE_FOGHARBAC
}

B82 = {	#Einnsag
	color = { 22 105 163 }
	
	country_type = unrecognized
	
	tier = principality
	
	cultures = { tuathak }
	capital = STATE_EINNSAG
}

B83 = {	#Sglard
	color = { 236 225 166 }
	
	country_type = unrecognized
	
	tier = principality
	
	cultures = { tuathak }
	capital = STATE_SGLOLAD
}

B84 = {	#Arakeprun
	color = { 112 11 187 }
	
	country_type = unrecognized
	
	tier = kingdom
	
	cultures = { selphereg }
	capital = STATE_DARHAN
}

B85 = {	#Murdkather
	color = { 11 187 128 }
	
	country_type = unrecognized
	
	tier = kingdom
	
	cultures = { caamas }
	capital = STATE_MURDKATHER
}

B86 = {	#Gladewardens
	color = { 233 154 64 }
	
	country_type = decentralized
	
	tier = principality
	
	cultures = { peitar }
	capital = STATE_DOMANDROD
}

B87 = {	#Eordand
	color = { 212 175 55 }
	
	country_type = unrecognized
	
	tier = empire
	
	cultures = { peitar selphereg caamas tuathak snecboth fograc }
	capital = STATE_DARHAN
}

B88 = {	#Fograc
	color = { 133 13 7 }
	
	country_type = decentralized
	
	tier = principality
	
	cultures = { fograc }
	capital = STATE_FOGRACLEAK
}

B89 = {	#Daxwell
	color = { 204 136 0 }
	
	country_type = colonial
	
	tier = principality
	
	cultures = { towerfoot_halfling }
	capital = STATE_BOEK
}

B90 = {	#Boek Protectorate
	color = { 0 179 149 }
	
	country_type = colonial
	
	tier = principality
	
	cultures = { boek }
	capital = STATE_YANEKIN
}

#South Aelantir
C01 = {	#Rezankand
	color = { 207 140 52 }
	
	country_type = colonial
	
	tier = empire
	
	cultures = { dawn_elf }
	capital = STATE_REZANOAN
}

C02 = {	#Amadia
	color = { 109 173 192 }
	
	country_type = colonial
	
	tier = empire
	
	cultures = { east_damerian }
	capital = STATE_BRONRIN
}

C03 = {	#Ozgarom
	color = { 78 180 20 }
	
	country_type = colonial
	
	tier = kingdom
	
	cultures = { ozgar_orc }
	capital = STATE_OZGAR
}

C04 = {	#Jibirae'n
	color = { 78 135 85 }
	
	country_type = unrecognized
	
	tier = principality
	
	cultures = { soruinic }
	capital = STATE_JIBIRAEN
}

C05 = {	#Nur Dhanaenn
	color = { 16 138 144 }
	
	country_type = colonial
	
	tier = kingdom
	
	cultures = { arbarani }
	capital = STATE_DALAINE
}

C06 = {	#Swamp Territories
	color = { 104 101 80 }
	
	country_type = colonial
	
	tier = principality
	
	cultures = { swampman }
	capital = STATE_SORFEN
}

C07 = {	#Kiohalen
	color = { 240 81 86 }
	
	country_type = colonial
	
	tier = principality
	
	cultures = { kioha_harpy }
	capital = STATE_KIOHALEN
}

C08 = {	#Drakesguard
	color = { 252 223 120 }
	
	country_type = colonial
	
	tier = principality
	
	cultures = { vernman }
	capital = STATE_THALASARAN
}

C09 = {	#Turtleback
	color = { 51 130 63 }
	
	country_type = colonial
	
	tier = principality
	
	cultures = { busilari }
	capital = STATE_WEST_TURTLEBACK
}

C10 = {	#Malatel
	color = { 35 74 190 }
	
	country_type = colonial
	
	tier = principality
	
	cultures = { pearlsedger }
	capital = STATE_WEST_TURTLEBACK
}

C11 = {	#Amadian native
	color = { 255 178 127 }
	
	country_type = decentralized
	
	tier = principality
	
	cultures = { doosun }
	capital = STATE_HARENAINE
}

C12 = {	#Sel'Parura
	color = { 109 137 37 }
	
	country_type = decentralized
	
	tier = principality
	
	cultures = { parura }
	capital = STATE_SCREAMING_JUNGLE
}

C13 = {	#Sel'Machu
	color = { 0 127 127 }
	
	country_type = decentralized
	
	tier = principality
	
	cultures = { parura }
	capital = STATE_SCREAMING_JUNGLE
}

C14 = {	#The Singing Jungle
	color = { 2 51 0 }
	
	country_type = decentralized
	
	tier = empire
	
	cultures = { seedthrall }
	capital = STATE_WESTERN_EFFELAI
}

C15 = {	#Effe'i
	color = { 45 24 2 }
	
	country_type = decentralized
	
	tier = principality
	
	cultures = { effe_i }
	capital = STATE_WESTERN_EFFELAI
}

C16 = {	#Lai'i
	color = { 183 183 183 }
	
	country_type = decentralized
	
	tier = principality
	
	cultures = { lai_i }
	capital = STATE_MUSHROOM_FOREST
}

C17 = {	#Thavo'i
	color = { 32 86 26 }
	
	country_type = decentralized
	
	tier = principality
	
	cultures = { thavo_i }
	capital = STATE_MUSHROOM_FOREST
}

C30 = {	#Kheios
	color = { 60 120 180 }
	
	country_type = unrecognized
	
	tier = kingdom
	
	cultures = { alecandi }
	capital = STATE_ORMAM_KHERKA
}

C31 = {	#Anisikheion
	color = { 125 129 88 }
	
	country_type = unrecognized
	
	tier = principality
	
	cultures = { alecandi }
	capital = STATE_ANISIKHEION
}

C32 = {	#The_Devand
	color = { 12 160 228 }
	
	country_type = unrecognized
	
	tier = colonial
	
	cultures = { vanburian devandi alecandi }
	capital = STATE_EMPKEIOS
}

C33 = {	#Keyolion
	color = { 117 149 237 }
	
	country_type = unrecognized
	
	tier = principality
	
	cultures = { devandi alecandi }
	capital = STATE_KEYOLION
}

C34 = {	#Eneion
	color = { 129 24 94 }
	
	country_type = unrecognized
	
	tier = principality
	
	cultures = { devandi alecandi }
	capital = STATE_ENEION
}

C35 = {	#Besolaki
	color = { 232 39 228 }
	
	country_type = unrecognized
	
	tier = principality
	
	cultures = { devandi alecandi }
	capital = STATE_BESOLAKI
}

C36 = {	#Apikhoxi
	color = { 68 5 16 }
	
	country_type = unrecognized
	
	tier = principality
	
	cultures = { devandi alecandi }
	capital = STATE_BESOLAKI
}

C37 = {	#Echate League
	color = { 159 130 188 }
	
	country_type = unrecognized
	
	tier = kingdom
	
	cultures = { devandi alecandi }
	capital = STATE_DEYEION
}

C38 = {	#Mteibhara
	color = { 181 201 225 }
	
	country_type = unrecognized
	
	tier = principality
	
	cultures = { mteibhar }
	capital = STATE_MTEIBHARA
}

C39 = {	#Ameion
	color = { 4 18 225 }
	
	country_type = unrecognized
	
	tier = kingdom
	
	cultures = { devandi }
	capital = STATE_AMEION
}

C40 = {	#Clematar
	color = { 115 207 251 }
	
	country_type = unrecognized
	
	tier = principality
	
	cultures = { larankarha }
	capital = STATE_CLEMATAR
}

C41 = {	#Sedregenhi
	color = { 255 127 49 }
	
	country_type = unrecognized
	
	tier = principality
	
	cultures = { larankarha }
	capital = STATE_CLEMATAR
}

C42 = {	#Larankar
	color = { 180 117 63 }
	
	country_type = unrecognized
	
	tier = principality
	
	cultures = { larankarha }
	capital = STATE_OLD_LARANKAR
}

C43 = {	#Enlarmai
	color = { 169 36 47 }
	
	country_type = unrecognized
	
	tier = principality
	
	cultures = { kalavendhi }
	capital = STATE_OLD_LARANKAR
}

C44 = {	#Marhed Varanya
	color = { 173 191 98 }
	
	country_type = unrecognized
	
	tier = principality
	
	cultures = { yodhanpir thekvrystana }
	capital = STATE_MARHED_VARANYA
}

C45 = {	#Nanru Nakar
	color = { 112 78 100 }
	
	country_type = unrecognized
	
	tier = kingdom
	
	cultures = { kalavendhi }
	capital = STATE_NANRU_NAKAR
}

C46 = {	#Klerechend
	color = { 228 181 98 }
	
	country_type = unrecognized
	
	tier = principality
	
	cultures = { devandi }
	capital = STATE_KLERECHEND
}

C47 = {	#Sibisimra
	color = { 53 233 53 }
	
	country_type = unrecognized
	
	tier = principality
	
	cultures = { yodhanpir }
	capital = STATE_SIBISIMRA
}

C48 = {	#Royakottar
	color = { 216 85 67 }
	
	country_type = unrecognized
	
	tier = principality
	
	cultures = { kalavendhi }
	capital = STATE_ORENKORAIM
}

C49 = {	#Orenkoraim
	color = { 24 206 183 }
	
	country_type = unrecognized
	
	tier = principality
	
	cultures = { kalavendhi }
	capital = STATE_ORENKORAIM
}

C50 = {	#Degithion
	color = { 107 110 226 }
	
	country_type = unrecognized
	
	tier = kingdom
	
	cultures = { devandi thekvrystana }
	capital = STATE_VUL_TENVACH
}

C51 = {	#Chendyans
	color = { 134 145 106 }
	
	country_type = decentralized
	
	tier = principality
	
	cultures = { chendhyan }
	capital = STATE_CHENDHYA
}

C52 = {	#Veyii Sikarhans
	color = { 73 90 95 }
	
	country_type = decentralized
	
	tier = principality
	
	cultures = { larankarha }
	capital = STATE_VEYII_SIKARHA
}

#Serpentspine
D01 = { #Aul-Dwarov
	color = { 33 64 96 }
	
	country_type = recognized
	
	tier = empire
	
	cultures = {  }
	capital = STATE_AMLDIHR
}

D02 = { #Krakdhumvror
	color = { 148 201 230 }
	
	country_type = recognized
	
	tier = kingdom
	
	cultures = { quartz_dwarf }
	capital = STATE_KRAKDHUMVROR
}

D03 = { #Dur-Vazhatun
	color = { 0 25 119 }
	
	country_type = unrecognized
	
	tier = kingdom
	
	cultures = { sapphire_dwarf }
	capital = STATE_DUR_VAZHATUN
}

D04 = { #Orlazam-az-dihr
	color = { 74 111 121 }
	
	country_type = unrecognized
	
	tier = kingdom
	
	cultures = { ramsteel_dwarf }
	capital = STATE_ORLAZAM_AZ_DIHR
}

D05 = { #Amldihr
	color = { 60 40 80 }
	
	country_type = recognized
	
	tier = kingdom
	
	cultures = { kronium_dwarf }
	capital = STATE_AMLDIHR
}

D06 = { #Kuxheztë/Modern Darkscale
	color = { 81 16 16 }
	
	country_type = unrecognized
	
	tier = kingdom
	
	cultures = { darkscale_kobold }
	capital = STATE_HARAZ_ORLDHUM
}

D07 = { #Haraz Orldhum
	color = { 74 80 97 }
	
	country_type = unrecognized
	
	tier = kingdom
	
	cultures = { platinum_dwarf }
	capital = STATE_HARAZ_ORLDHUM
}

D08 = { #Khugdihr
	color = { 149 131 101 }
	
	country_type = recognized
	
	tier = kingdom
	
	cultures = { agate_dwarf }
	capital = STATE_KHUGDIHR
}

D09 = { #Mithradhum
	color = { 81 231 213 }
	
	country_type = unrecognized
	
	tier = kingdom
	
	cultures = { mithril_dwarf }
	capital = STATE_MITHRADHUM
}

D10 = { #Allclan
	color = { 34 216 0 }
	
	country_type = unrecognized
	
	tier = kingdom
	
	cultures = { cave_goblin }
	capital = STATE_ER_NATVIR
}

D11 = { #Er-Natvir
	color = { 147 191 155 }
	
	country_type = unrecognized
	
	tier = kingdom
	
	cultures = { dagrite_dwarf }
	capital = STATE_ER_NATVIR
}

#fix this lmao
D60 = { #Verkal Kozenad
	color = { 255 228 216 }
	
	country_type = unrecognized
	
	tier = kingdom
	
	cultures = { opal_dwarf }
	capital = STATE_VERKAL_KOZENAD
}

D12 = { #Hul-Jorkad
	color = { 160 114 158 }
	
	country_type = recognized
	
	tier = kingdom
	
	cultures = { lead_dwarf }
	capital = STATE_HUL_JORKAD
}

D13 = { #Gor Burad
	color = { 240 72 72 }
	
	country_type = unrecognized
	
	tier = kingdom
	
	cultures = { basalt_dwarf }
	capital = STATE_GOR_BURAD
}

D14 = { #Ovdal Lodhum
	color = { 247 179 215 }
	
	country_type = recognized
	
	tier = kingdom
	
	cultures = { garnet_dwarf }
	capital = STATE_OVDAL_LODHUM
}

D15 = { #Obsidian Legion
	color = { 8 14 42 }
	
	country_type = unrecognized
	
	tier = kingdom
	
	cultures = { obsidian_dwarf }
	capital = STATE_VERKAL_SKOMDIHR
}

D16 = { #Haraz Dhumankon
	color = { 56 43 70 }
	
	country_type = unrecognized
	
	tier = kingdom
	
	cultures = { obsidian_dwarf }
	capital = STATE_VERKAL_SKOMDIHR
}

D17 = { #Verkal Skomdihr
	color = { 55 144 90 }
	
	country_type = unrecognized
	
	tier = kingdom
	
	cultures = { flint_dwarf }
	capital = STATE_VERKAL_SKOMDIHR
}

D18 = { #Arg Ordstun
	color = { 200 200 200 }
	
	country_type = recognized
	
	tier = kingdom
	
	cultures = { diamond_dwarf }
	capital = STATE_ARG_ORDSTUN
}

D19 = { #Shazstundihr
	color = { 241 242 227 }
	
	country_type = unrecognized
	
	tier = kingdom
	
	cultures = { marble_dwarf }
	capital = STATE_SHAZSTUNDIHR
}

D20 = { #Orlghelovar
	color = { 0 71 171 }
	
	country_type = unrecognized
	
	tier = kingdom
	
	cultures = { cobalt_dwarf }
	capital = STATE_ORLGHELOVAR
}

D21 = { #Skewered Drake
	color = { 178 135 46 }
	
	country_type = unrecognized
	
	tier = kingdom
	
	cultures = { black_orc }
	capital = STATE_GOR_VAZUMBROG
}

D22 = { #Gor Vazumbrog
	color = { 223 187 144 }
	
	country_type = unrecognized
	
	tier = kingdom
	
	cultures = { titanium_dwarf }
	capital = STATE_GOR_VAZUMBROG
}

D23 = { #Hehodovar
	color = { 15 82 186 }
	
	country_type = unrecognized
	
	tier = kingdom
	
	cultures = { pyrite_dwarf }
	capital = STATE_HEHODOVAR
}

D24 = { #Seghdihr
	color = { 36 96 143 }
	
	country_type = recognized
	
	tier = kingdom
	
	cultures = { citrine_dwarf }
	capital = STATE_SEGHDIHR
}

D25 = { #Verkal Gulan
	color = { 255 198 0 }
	
	country_type = recognized
	
	tier = kingdom
	
	cultures = { gold_dwarf }
	capital = STATE_VERKAL_GULAN
}

D26 = { #Underkingdom
	color = { 255 179 230 }
	
	country_type = unrecognized
	
	tier = kingdom
	
	cultures = { cave_goblin }
	capital = STATE_OVDAL_KANZAD
}

D27 = { #Gor Ozumbrog
	color = { 93 161 154 }
	
	country_type = unrecognized
	
	tier = kingdom
	
	cultures = { topaz_dwarf }
	capital = STATE_GOR_OZUMBROG
}

D28 = { #Ovdal Kanzad
	color = { 230 190 44 }
	
	country_type = unrecognized
	
	tier = kingdom
	
	cultures = { amber_dwarf }
	capital = STATE_OVDAL_KANZAD
}

D29 = { #Grozumdihr
	color = { 135 225 135 }
	
	country_type = unrecognized
	
	tier = kingdom
	
	cultures = { peridot_dwarf }
	capital = STATE_GROZUMDIHR
}

D30 = { #Ovdal-az-An
	color = { 114 202 227 }
	
	country_type = unrecognized
	
	tier = kingdom
	
	cultures = { granite_dwarf }
	capital = STATE_OVDAL_AZ_AN
}

D31 = { #Dakaz Carzviya/Modern Chaingrasper
	color = { 0 105 62 }
	
	country_type = unrecognized
	
	tier = kingdom
	
	cultures = { cave_goblin }
	capital = STATE_HUL_AZ_KRAKAZOL
}

D32 = { #Hul-az-Krakazol
	color = { 153 108 204 }
	
	country_type = unrecognized
	
	tier = kingdom
	
	cultures = { amethyst_dwarf }
	capital = STATE_HUL_AZ_KRAKAZOL
}

D33 = { #Jade March
	color = { 67 111 78 }
	
	country_type = unrecognized
	
	tier = kingdom
	
	cultures = { cave_goblin }
	capital = STATE_GRONSTUNAD
}

D34 = { #Tuwad-Dhumankon
	color = { 27 253 102 }
	
	country_type = unrecognized
	
	tier = kingdom
	
	cultures = { emerald_dwarf }
	capital = STATE_TUWAD_DHUMANKON
}

D35 = { #Gronstunad
	color = { 0 168 107 }
	
	country_type = unrecognized
	
	tier = kingdom
	
	cultures = { jade_dwarf }
	capital = STATE_GRONSTUNAD
}

D36 = { #Verkal Dromak
	color = { 255 128 0 }
	
	country_type = unrecognized
	
	tier = kingdom
	
	cultures = { malachite_dwarf }
	capital = STATE_VERKAL_DROMAK
}

D37 = { #Kuxhekrë/Modern Siegebreaker
	color = { 161 210 141 }
	
	country_type = unrecognized
	
	tier = kingdom
	
	cultures = { black_orc }
	capital = STATE_CHAINLINK_MINES
}


D38 = { #Stubbed Toe
	color = { 201 62 62 }
	
	country_type = decentralized
	
	tier = principality
	
	cultures = { cave_goblin }
	capital = STATE_TRUEPATH_CAVERNS
}

D39 = { #Ironshark
	color = { 21 139 148 }
	
	country_type = decentralized
	
	tier = principality
	
	cultures = { cave_goblin }
	capital = STATE_CHAINLINK_MINES
}

D40 = { #Fungus Licker
	color = { 222 148 51 }
	
	country_type = decentralized
	
	tier = principality
	
	cultures = { cave_goblin }
	capital = STATE_DEAD_CAVERNS
}

D41 = { #Mouth Breather
	color = { 48 172 77 }
	
	country_type = decentralized
	
	tier = principality
	
	cultures = { cave_goblin }
	capital = STATE_DEAD_CAVERNS
}

D42 = { #Rockeater
	color = { 161 161 27 }
	
	country_type = decentralized
	
	tier = principality
	
	cultures = { cave_goblin }
	capital = STATE_DEAD_CAVERNS
}


D43 = { #Spiderwretch
	color = { 41 40 105 }
	
	country_type = decentralized
	
	tier = principality
	
	cultures = { cave_goblin }
	capital = STATE_SKITTERING_CAVERNS
}

D44 = { #Bloodhowl
	color = { 219 28 66 }
	
	country_type = decentralized
	
	tier = principality
	
	cultures = { black_orc }
	capital = STATE_CRUMBLING_CAVERNS
}

D45 = { #Tongue Twister
	color = { 203 46 203 }
	
	country_type = decentralized
	
	tier = principality
	
	cultures = { cave_goblin }
	capital = STATE_CRUMBLING_CAVERNS
}

D46 = { #Firescales
	color = { 213 20 20 }
	
	country_type = decentralized
	
	tier = principality
	
	cultures = { darkscale_kobold }
	capital = STATE_SCALDING_PITS
}

D47 = { #Burnt Skin
	color = { 44 31 47 }
	
	country_type = decentralized
	
	tier = principality
	
	cultures = { cave_goblin }
	capital = STATE_FORGOTTEN_DEPTHS
}

D48 = { #Cave Breaker
	color = { 172 140 35 }
	
	country_type = decentralized
	
	tier = principality
	
	cultures = { black_orc }
	capital = STATE_ORCSFALL
}

D49 = { #Thieving Arrow
	color = { 175 129 123 }
	
	country_type = decentralized
	
	tier = principality
	
	cultures = { cave_goblin }
	capital = STATE_WINDING_CAVERNS
}

D50 = { #Loaded Die
	color = { 131 113 113 }
	
	country_type = decentralized
	
	tier = principality
	
	cultures = { cave_goblin }
	capital = STATE_WINDING_CAVERNS
}

D51 = { #Masked Butcher
	color = { 51 3 14 }
	
	country_type = decentralized
	
	tier = principality
	
	cultures = { black_orc }
	capital = STATE_SCREAMING_CAVERNS
}

D52 = { #Wall Shadows
	color = { 33 3 3 }
	
	country_type = decentralized
	
	tier = principality
	
	cultures = { cave_goblin }
	capital = STATE_FORSAKEN_DEPTHS
}

D53 = { #Gembreaker
	color = { 239 145 4 }
	
	country_type = decentralized
	
	tier = principality
	
	cultures = { black_orc }
	capital = STATE_CITRINE_MINES
}

D54 = { #Straight Spines
	color = { 34 131 20 }
	
	country_type = decentralized
	
	tier = principality
	
	cultures = { cave_goblin }
	capital = STATE_CITRINE_MINES
}

D55 = { #Shadowdreamer
	color = { 147 133 140 }
	
	country_type = decentralized
	
	tier = principality
	
	cultures = { black_orc }
	capital = STATE_GREATCAVERNS
}

D56 = { #Grizehûd
	color = { 96 30 195 }
	
	country_type = decentralized
	
	tier = principality
	
	cultures = { cave_troll }
	capital = STATE_FOOLS_PASSAGE
}

D57 = { #Ratsnatchers
	color = { 245 45 158 }
	
	country_type = decentralized
	
	tier = principality
	
	cultures = { cave_goblin }
	capital = STATE_RATHOLES
}

D58 = { #Lazy Eye
	color = { 32 36 154 }
	
	country_type = decentralized
	
	tier = principality
	
	cultures = { cave_goblin }
	capital = STATE_ANCIENT_DEPTHS
}

D59 = { #Blackened Eye
	color = { 13 13 21 }
	
	country_type = decentralized
	
	tier = principality
	
	cultures = { cave_goblin }
	capital = STATE_ANCIENT_DEPTHS
}


#Forbidden Plains
E01 = { #Lake Federation
	color = { 20 50 210 }
	
	country_type = unrecognized
	
	tier = empire
	
	cultures = { metsamic zabatlari khamgunai }
	capital = STATE_KESH_GOLKHIN
}

E02 = { #Maghargma
	color = { 196 180 132 }
	
	country_type = unrecognized
	
	tier = kingdom
	
	cultures = { fathide_ogre }
	capital = STATE_DZIMOKLI
}

E03 = { #West Cossack
	color = { 210 20 50 }
	
	country_type = unrecognized
	
	tier = principality
	
	cultures = { orachav }
	capital = STATE_SOCHULEAG
}

E04 = { #East Cossack
	color = { 50 210 20 }
	
	country_type = unrecognized
	
	tier = principality
	
	cultures = { orachav }
	capital = STATE_ORCHEKH
}

E05 = { #River Centaur
	color = { 58 101 87 } #Serpent Shadow color
	
	country_type = unrecognized
	
	tier = principality
	
	cultures = { centaur }
	capital = STATE_SERPENT_GIFT
}

E06 = { #West Desert Centaur
	color = { 244 151 82 } #Burning Hooves color
	
	country_type = decentralized
	
	tier = principality
	
	cultures = { centaur }
	capital = STATE_CAUBHEAMEAS
}

E07 = { #East Desert Centaur
	color = { 179 22 102 } #Red Stallion color
	
	country_type = decentralized
	
	tier = principality
	
	cultures = { centaur }
	capital = STATE_IRDU_AGEENEAS
}

E08 = { #West Steppe Centaur
	color = { 46 119 160 } #Battlesong color
	
	country_type = unrecognized
	
	tier = principality
	
	cultures = { centaur }
	capital = STATE_UGHEABAR
}

E09 = { #East Steppe Centaur
	color = { 246 217 36 } #Great Rally color
	
	country_type = unrecognized
	
	tier = principality
	
	cultures = { centaur }
	capital = STATE_GHANEERSP
}

#Bulwar
F01 = {	#Jaddanzar Empire
	color = { 241 135 50 }
	
	country_type = unrecognized
	
	tier = empire
	
	cultures = { sun_elven surani siadunan_harpy }
	capital = STATE_JADDANZAR
}

F02 = {	#Brasan
	color = { 205  233  232 }
	
	country_type = unrecognized
	
	tier = kingdom
	
	cultures = { brasanni }
	capital = STATE_BRASAN
}

F03 = {	#Drolas
	color = { 153  3  48 }
	
	country_type = unrecognized
	
	tier = principality
	
	cultures = { brasanni }
	capital = STATE_DROLAS
}

F04 = {	#Sad Sur
	color = { 148  122  74 }
	
	country_type = unrecognized
	
	tier = kingdom
	
	cultures = { brasanni }
	capital = STATE_DROLAS
}

F05 = {	#Medurubar
	color = { 0  85  100 }
	
	country_type = unrecognized
	
	tier = principality
	
	cultures = { brasanni }
	capital = STATE_DROLAS
}

F06 = {	#Aklum
	color = { 80  120  90 }
	
	country_type = unrecognized
	
	tier = principality
	
	cultures = { brasanni }
	capital = STATE_DROLAS
}

F07 = {	#Zansap
	color = { 87  177  200 }
	
	country_type = unrecognized
	
	tier = principality
	
	cultures = { zanite }
	capital = STATE_DROLAS
}

F08 = {	#Irrliam
	color = { 242  206  61 }
	
	country_type = unrecognized
	
	tier = kingdom
	
	cultures = { sun_elven }
	capital = STATE_DROLAS
}

F09 = {	#Kuzaram
	color = { 80  100  100 }
	
	country_type = unrecognized
	
	tier = principality
	
	cultures = { bahari }
	capital = STATE_DROLAS
}

F10 = {	#Garlas-Kel
	color = { 73  198  52 }
	
	country_type = unrecognized
	
	tier = principality
	
	cultures = { gelkari }
	capital = STATE_DROLAS
}

F11 = {	#Azka Kam
	color = { 33  70  106 }
	
	country_type = unrecognized
	
	tier = principality
	
	cultures = { sun_elven }
	capital = STATE_DROLAS
}

F12 = {	#Kalisad
	color = { 246  236  103 }
	
	country_type = unrecognized
	
	tier = principality
	
	cultures = { sun_elven }
	capital = STATE_DROLAS
}

F13 = {	#Harpylen
	color = { 200  169  168 }
	
	country_type = unrecognized
	
	tier = kingdom
	
	cultures = { firanyan_harpy }
	capital = STATE_HARPYLEN
}

F14 = {	#Overclan
	color = { 100  100  200 }
	
	country_type = unrecognized
	
	tier = kingdom
	
	cultures = { bahari_goblin }
	capital = STATE_AQATBAHAR
}

F15 = {	#Ovdal Tungr
	color = { 204  117  21 }
	
	country_type = recognized
	
	tier = principality
	
	cultures = { copper_dwarf }
	capital = STATE_OVDAL_TUNGR
}

F16 = {	#Kheterata
	color = { 219  148  35 }
	
	country_type = recognized
	
	tier = kingdom
	
	cultures = { sorrowclaw_gnoll kheteratan }
	capital = STATE_KHETERAT
}

F17 = {	#Gnollakaz
	color = { 160  125  93 }
	
	country_type = recognized
	
	tier = kingdom
	
	cultures = { sandfang_gnoll }
	capital = STATE_GNOLLAKAZ
}




#Rahen
R01 = {	#Nahana Jadd
	color = { 172 30 11 }
	
	country_type = unrecognized
	
	tier = empire
	
	cultures = { sun_elven royal_harimari }
	capital = STATE_UPPER_DHENBASANA
}

R02 = {	#Ghankedhen
	color = { 234 77 0 }
	
	country_type = unrecognized
	
	tier = kingdom
	
	cultures = { ghankedhen }
	capital = STATE_SOUTH_GHANKEDHEN
}

R03 = {	#Tudhina
	color = { 193  89  33 }
	
	country_type = unrecognized
	
	tier = principality
	
	cultures = { royal_harimari pasindesh }
	capital = STATE_TUDHINA
}

R04 = {	#Vanrahar
	color = { 60 2 11 }
	
	country_type = unrecognized
	
	tier = kingdom
	
	cultures = { royal_harimari }
	capital = STATE_ASCENSION_JUNGLE
}

R05 = {	#Bhuvauri
	color = { 30  58  18 }
	
	country_type = unrecognized
	
	tier = kingdom
	
	cultures = { sarniryabsad }
	capital = STATE_EAST_GHAVAANAJ
}

R06 = {	#Babhagama
	color = { 145  102  35 }
	
	country_type = unrecognized
	
	tier = kingdom
	
	cultures = { royal_harimari sobhagand }
	capital = STATE_BABHAGAMA
}

R07 = {	#Nadimraj
	color = { 33 113 170 }
	
	country_type = unrecognized
	
	tier = kingdom
	
	cultures = { shandibad }
	capital = STATE_RAJNADHAGA
}

R08 = {	#The Old Command
	color = { 153  76  0 }
	
	country_type = unrecognized
	
	tier = kingdom
	
	cultures = { wolf_hobgoblin boar_hobgoblin }
	capital = STATE_RAGHAJANDI
}

R09 = {	#Pordhatti
	color = { 0  203  216 }
	
	country_type = unrecognized
	
	tier = kingdom
	
	cultures = { tiger_hobgoblin }
	capital = STATE_TUGHAYASA
}

R10 = {	#Khiraspid
	color = { 153 206 236 }
	
	country_type = unrecognized
	
	tier = kingdom
	
	cultures = { rasarhid }
	capital = STATE_DHUJAT
}

R11 = {	#Keyattordha
	color = { 225 117 106 }
	
	country_type = unrecognized
	
	tier = kingdom
	
	cultures = { rasarhid }
	capital = STATE_DHUJAT
}

R12 = {	#Maharaaja
	color = { 45 27 72 }
	
	country_type = unrecognized
	
	tier = kingdom
	
	cultures = { dhukharuved }
	capital = STATE_EAST_GHAVAANAJ
}

R13 = {	#Yodashikyu
	color = { 60 80 160 }
	
	country_type = unrecognized
	
	tier = kingdom
	
	cultures = { elephant_hobgoblin }
	capital = STATE_SARISUNG
}

R14 = {	#COMMAND A
	color = { 228 189 180 }
	
	country_type = unrecognized
	
	tier = kingdom
	
	cultures = { east_damerian }
	capital = STATE_GHILAKHAD
}

R15 = {	#COMMAND B
	color = { 180 135 125 }
	
	country_type = unrecognized
	
	tier = kingdom
	
	cultures = { east_damerian }
	capital = STATE_SHAMAKHAD_PLAINS
}

R16 = {	#COMMAND C
	color = { 119 115 103 }
	
	country_type = unrecognized
	
	tier = kingdom
	
	cultures = { east_damerian }
	capital = STATE_SHAMAKHAD_PLAINS
}

R17 = {	#Lion Command
	color = { 114 175 108 }
	
	country_type = unrecognized
	
	tier = kingdom
	
	cultures = { lion_hobgoblin }
	capital = STATE_GHATASAK
}

R18 = {	#COMMAND E
	color = { 150 115 120 }
	
	country_type = unrecognized
	
	tier = kingdom
	
	cultures = { east_damerian }
	capital = STATE_SHAMAKHAD_PLAINS
}

R19 = {	#Dragon Command
	color = { 60 10 0 }
	
	country_type = unrecognized
	
	tier = kingdom
	
	cultures = { dragon_hobgoblin }
	capital = STATE_446
}

R72 = {	#Dhugajir
	color = { 84 80 77 }
	
	country_type = unrecognized
	
	tier = kingdom
	
	cultures = { tiger_hobgoblin }
	capital = STATE_SRAMAYA
}

#Yanshen + North Haless
Y01 = {	#Daengun
	color = { 60 160 120 }
	
	country_type = unrecognized
	
	tier = kingdom
	
	cultures = { sangsogha menjeotaen chimbija }
	capital = STATE_439
}

Y02 = {	#Yanshen
	color = { 190 190 190 }
	
	country_type = unrecognized
	
	tier = empire
	
	cultures = { jiangszun beikling gangim naamjyut jiangyang }
	capital = STATE_TIANLOU
}

Y03 = {	#Tianlou
	color = { 156 172 171 }
	
	country_type = unrecognized
	
	tier = kingdom
	
	cultures = { jiangszun }
	capital = STATE_TIANLOU
}

Y04 = {	#Lingyuk
	color = { 138 36 118 }
	
	country_type = unrecognized
	
	tier = kingdom
	
	cultures = { gangim }
	capital = STATE_LINGYUK
}

Y05 = {	#Feiten
	color = { 26 158 201 }
	
	country_type = unrecognized
	
	tier = kingdom
	
	cultures = { gangim }
	capital = STATE_IONGSIM
}

Y06 = {	#Luoyip
	color = { 235 181 13 }
	
	country_type = unrecognized
	
	tier = kingdom
	
	cultures = { gangim }
	capital = STATE_LUOYIP
}

Y07 = {	#Zyujyut
	color = { 195 42 30 }
	
	country_type = unrecognized
	
	tier = kingdom
	
	cultures = { naamjyut }
	capital = STATE_ZYUJYUT
}

Y08 = {	#Zhiqian
	color = { 11 17 69 }
	
	country_type = unrecognized
	
	tier = principality
	
	cultures = { jiangyang }
	capital = STATE_XUANBING
}

Y09 = {	#Azjakuma
	color = { 192 50 70 }
	
	country_type = unrecognized
	
	tier = kingdom
	
	cultures = { horned_ogre }
	capital = STATE_SUGROLTONA
}

Y10 = {	#Balrijin
	color = { 208 170 45 }
	
	country_type = unrecognized
	
	tier = principality
	
	cultures = { goldscale_kobold }
	capital = STATE_BALRIJIN
}

Y11 = {	#Shuvuushdi
	color = { 145 116 70 }
	
	country_type = unrecognized
	
	tier = kingdom
	
	cultures = { shuvuush } #settled birdriders
	capital = STATE_JIANTSIANG
}

Y12 = {	#Semphrerong
	color = { 205 87 137 }
	
	country_type = unrecognized
	
	tier = principality
	
	cultures = { chengrong }
	capital = STATE_KHARUNYANA_BOMDAN
}

Y13 = {	#Phanbang
	color = { 69 69 69 }
	
	country_type = unrecognized
	
	tier = principality
	
	cultures = { chengrong }
	capital = STATE_KHARUNYANA_BOMDAN
}

Y14 = {	#Taiver
	color = { 10 20 80 }
	
	country_type = unrecognized
	
	tier = kingdom
	
	cultures = { ranilau }
	capital = STATE_BIM_LAU
}

Y15 = {	#Bim Lau
	color = { 35 153 90 }
	
	country_type = unrecognized
	
	tier = principality
	
	cultures = { ranilau }
	capital = STATE_BIM_LAU
}

Y16 = {	#Khabtei Teleni
	color = { 136 165 164 }
	
	country_type = unrecognized
	
	tier = principality
	
	cultures = { biengdi }
	capital = STATE_KHABTEI_TELENI
}

Y17 = {	#Azkare
	color = { 136 30 9 }
	
	country_type = unrecognized
	
	tier = kingdom
	
	cultures = { sikai }
	capital = STATE_SIKAI
}

Y18 = {	#Rongbek
	color = { 151 108 14 }
	
	country_type = unrecognized
	
	tier = principality
	
	cultures = { risbeko }
	capital = STATE_RONGBEK
}

Y19 = {	#Baihon Xinh
	color = { 255 174 0 }
	
	country_type = unrecognized
	
	tier = empire
	
	cultures = { khom phonan }
	capital = STATE_KHOM_MA
}

Y20 = {	#Verkal Ozovar
	color = { 159 224 208 }
	
	country_type = unrecognized
	
	tier = kingdom
	
	cultures = { nephrite_dwarf }
	capital = STATE_VERKAL_OZOVAR
}

Y21 = {	#Kudet Kai
	color = { 135 125 85 }
	
	country_type = unrecognized
	
	tier = kingdom
	
	cultures = { bokai }
	capital = STATE_KUDET_KAI
}

Y22 = {	#Sirtan
	color = { 185 97 97 }
	
	country_type = unrecognized
	
	tier = kingdom
	
	cultures = { sirtana }
	capital = STATE_SIRTAN
}

Y23 = {	#Arawkelin
	color = { 160 115 20 }
	
	country_type = unrecognized
	
	tier = kingdom
	
	cultures = { kelino }
	capital = STATE_ARAWKELIN
}

Y24 = {	#Tlagapatung
	color = { 62 180 137 }
	
	country_type = unrecognized
	
	tier = kingdomhujan
	
	cultures = { hujan }
	capital = STATE_TLAGUKIT
}

Y25 = {	#Pelimkana
	color = { 60 115 20 }
	
	country_type = unrecognized
	
	tier = kingdom
	
	cultures = { paru }
	capital = STATE_REWIRANG
}

Y26 = {	#Isdusama
	color = { 85 82 102 }
	
	country_type = unrecognized
	
	tier = kingdom
	
	cultures = { banyak }
	capital = STATE_REWIRANG
}

Y27 = {	#Rihasbren
	color = { 104 109 54 }
	
	country_type = unrecognized
	
	tier = kingdom
	
	cultures = { banyak }
	capital = STATE_REWIRANG
}

Y28 = {	#Tsaesolan
	color = { 130 127 126 }
	
	country_type = unrecognized
	
	tier = kingdom
	
	cultures = { banyak }
	capital = STATE_REWIRANG
}

Y29 = {	#Lelak
	color = { 113 232 24 }
	
	country_type = unrecognized
	
	tier = kingdom
	
	cultures = { banyak }
	capital = STATE_REWIRANG
}

Y30 = {	#Hijoadan
	color = { 23 104 58 }
	
	country_type = unrecognized
	
	tier = kingdom
	
	cultures = { paru }
	capital = STATE_MESATULEK
}

Y31 = {	#Labanyak
	color = { 81 111 128 }
	
	country_type = unrecognized
	
	tier = kingdom
	
	cultures = { banyak }
	capital = STATE_MESATULEK
}

Y32 = {	#Lorentish Haless Company
	color = { 42 163 124 }
	
	country_type = recognized
	
	tier = kingdom
	
	cultures = { lorentish }
	capital = STATE_LOWER_TELEBEI
}

Y33 = {	#Busilar Haless Company
	color = { 251 251 249 }
	
	country_type = recognized
	
	tier = kingdom
	
	cultures = { busilari }
	capital = STATE_MESATULEK
}

Y34 = {	#Busilar Haless Company
	color = { 20 20 35 }
	
	country_type = recognized
	
	tier = principality
	
	cultures = { busilari }
	capital = STATE_488
}

Y35 = {	#NH Decentralized 1
	color = { 240 200 210 }
	
	country_type = decentralized
	
	tier = principality
	
	cultures = { runsukhi }
	capital = STATE_434
}

Y36 = {	#NH Decentralized 2
	color = { 120 120 155 }
	
	country_type = decentralized
	
	tier = principality
	
	cultures = { ulukungu }
	capital = STATE_432
}

Y37 = {	#NH Decentralized 3
	color = { 120 155 120 }
	
	country_type = decentralized
	
	tier = principality
	
	cultures = { mogirga }
	capital = STATE_431
}

Y38 = {	#Beikdugang outpost
	color = { 119 99 188 }
	
	country_type = unrecognized
	
	tier = principality
	
	cultures = { beikling }
	capital = STATE_430
}













L01 = {	#Melakmengi
	color = { 88  24  69 }
	
	country_type = unrecognized
	
	tier = empire
	
	cultures = { yeteferen }
	capital = STATE_MELAKFAN
}

L02 = {	#Boyebareti
	color = { 227  242  253 }
	
	country_type = unrecognized
	
	tier = principality
	
	cultures = { yeteferen }
	capital = STATE_MENGABOYS_22
}

L03 = {	#Haraagtseda
	color = { 160 110 110 }
	
	country_type = unrecognized
	
	tier = kingdom
	
	cultures = { fieldstalker_gnoll }
	capital = STATE_MENGABOYS_27
}

L04 = {	#Nalayni
	color = { 255  138  101 }
	
	country_type = unrecognized
	
	tier = principality
	
	cultures = { nalayni_harpy }
	capital = STATE_MENGABOYS_20
}